[gd_scene load_steps=8 format=2]

[ext_resource path="res://src/space_invader/Vaisseau.gd" type="Script" id=1]
[ext_resource path="res://assets/img/space_invader/vaisseau ennemi.png" type="Texture" id=2]
[ext_resource path="res://assets/music/voixoffggj/finAlien.wav" type="AudioStream" id=3]

[sub_resource type="RectangleShape2D" id=1]

extents = Vector2( 51.2016, 42.0993 )

[sub_resource type="Gradient" id=2]

offsets = PoolRealArray( 0, 0.659574, 1 )
colors = PoolColorArray( 0.027451, 0.0980392, 0.423529, 1, 0.369049, 0.392231, 0.679688, 0.396039, 1, 1, 1, 0 )

[sub_resource type="GradientTexture" id=3]

gradient = SubResource( 2 )

[sub_resource type="ParticlesMaterial" id=4]

emission_shape = 2
emission_box_extents = Vector3( 0, 18, 1 )
flag_disable_z = true
spread = 0.0
gravity = Vector3( 0, -1000, 0 )
initial_velocity = 200.0
initial_velocity_random = 0.1
angular_velocity = 1.46602e+13
orbit_velocity = 0.0
orbit_velocity_random = 0.0
radial_accel = -1000.0
radial_accel_random = 0.49
scale = 4.0
scale_random = 1.0
color_ramp = SubResource( 3 )

[node name="Vaisseau" type="StaticBody2D"]
script = ExtResource( 1 )

[node name="CollisionShape2D" type="CollisionShape2D" parent="."]
position = Vector2( 1.40425, 0.568016 )
shape = SubResource( 1 )

[node name="Sprite" type="Sprite" parent="."]
position = Vector2( 1.45633, -0.580414 )
scale = Vector2( 0.16, 0.16 )
texture = ExtResource( 2 )
region_enabled = true
region_rect = Rect2( 0, 1460, 640, 540 )

[node name="Particles2D" type="Particles2D" parent="."]
position = Vector2( 3, -41 )
rotation = -1.5708
amount = 30
lifetime = 0.1
randomness = 1.0
local_coords = false
process_material = SubResource( 4 )

[node name="EndLoose" type="AudioStreamPlayer" parent="."]
stream = ExtResource( 3 )

[connection signal="finished" from="EndLoose" to="." method="_on_EndLoose_finished"]
